{
  "$id": "https://gitlab.opencode.de/opencode-analyzer/occmd-public/-/tree/main/resources/schemas/check_OpencodeUsage_output_format.json",
  "$schema": "http://json-schema.org/draft-04/schema#",
  "description": "The check-specific results of the OpenCoDE Usage check.",
  "properties": {
    "opencode_usage": {
      "description": "An array with results of the individual heuristics.",
      "items": [
        {
          "properties": {
            "confidence": {
              "description": "The confidence of the heuristic (between 0 and 1).",
              "type": "number"
            },
            "name": {
              "description": "The name of the heuristic.",
              "type": "string"
            },
            "value": {
              "description": "The value returned by the heuristic (between 0 and 1; 1.0 means the repository is likely a mirror).",
              "type": "string"
            }
          },
          "required": [
            "name",
            "value",
            "confidence"
          ],
          "type": "object"
        }
      ],
      "type": "array"
    }
  },
  "required": [
    "opencode_usage"
  ],
  "title": "OpenCoDE Usage results",
  "type": "object"
}
