{
  "$id": "https://gitlab.opencode.de/opencode-analyzer/occmd-public/-/tree/main/resources/schemas/check_CheckedInBinaries_output_format.json",
  "$schema": "http://json-schema.org/draft-04/schema#",
  "description": "The check-specific results of the CheckedInBinaries check.",
  "properties": {
    "ft_paths": {
      "description": "The blacklisted file types we detected together with the paths of the offending files.",
      "items": [
        {
          "items": [
            {
              "description": "The blacklisted file type.",
              "type": "string"
            },
            {
              "description": "The paths of files with the file type.",
              "items": [
                {
                  "description": "The file path.",
                  "type": "string"
                }
              ],
              "type": "array"
            }
          ],
          "type": "array"
        }
      ],
      "type": "array"
    }
  },
  "required": [
    "ft_paths"
  ],
  "title": "CheckedInBinaries results",
  "type": "object"
}
