{
  "abap": "abap",
  "abnf": null,
  "actionscript": "actionscript",
  "ada": "ada",
  "agda": "agda",
  "alex": null,
  "alloy": "alloy",
  "arduino": null,
  "asciidoc": null,
  "asn1": null,
  "asp": "classic asp",
  "aspnet": null,
  "assembly": "assembly",
  "assemblygas": null,
  "astro": null,
  "ats": "ats",
  "autoconf": "m4sugar",
  "autohotkey": "autohotkey",
  "autoit": "autoit",
  "automake": null,
  "awk": "awk",
  "bash": "shell",
  "batch": "batchfile",
  "bazel": "starlark",
  "bean": null,
  "bitbake": "bitbake",
  "brightscript": "brightscript",
  "c": "c",
  "cabal": null,
  "cassius": null,
  "ceylon": "ceylon",
  "cheader": "c",
  "clojure": "clojure",
  "clojurec": null,
  "clojurescript": null,
  "cmake": "cmake",
  "cobol": "cobol",
  "codeql": "codeql",
  "coffeescript": "coffeescript",
  "cogent": null,
  "coldfusion": "coldfusion",
  "coldfusionscript": null,
  "coq": "coq",
  "cpp": "c++",
  "cppheader": "c++",
  "crystal": "crystal",
  "csharp": "c#",
  "cshell": null,
  "css": null,
  "cuda": "cuda",
  "cython": "cython",
  "d": "d",
  "daml": null,
  "dart": "dart",
  "devicetree": null,
  "dhall": "dhall",
  "dockerfile": "dockerfile",
  "dotnetresource": null,
  "dreammaker": null,
  "dust": null,
  "ebuild": null,
  "edgeql": null,
  "edn": null,
  "elisp": "emacs lisp",
  "elixir": "elixir",
  "elm": "elm",
  "elvish": "elvish",
  "emacsdevenv": null,
  "emojicode": null,
  "erlang": "erlang",
  "esdl": null,
  "factor": "factor",
  "fen": null,
  "fennel": "fennel",
  "fish": "fish",
  "flatbuffers": null,
  "forgeconfig": null,
  "forth": "forth",
  "fortranlegacy": "fortran",
  "fortranmodern": "fortran",
  "freemarker": "freemarker",
  "fsharp": "f#",
  "fstar": "f*",
  "futhark": "futhark",
  "gdb": "gdb",
  "gdscript": "gdscript",
  "gherkin": "gherkin",
  "gleam": "gleam",
  "glsl": "glsl",
  "gml": null,
  "go": "go",
  "gohtml": null,
  "graphql": null,
  "groovy": "groovy",
  "gwion": null,
  "haml": null,
  "hamlet": null,
  "handlebars": null,
  "happy": null,
  "haskell": "haskell",
  "haxe": "haxe",
  "hcl": "hcl",
  "headache": null,
  "hex": null,
  "hicad": null,
  "hlsl": "hlsl",
  "holyc": "holyc",
  "html": null,
  "hy": "hy",
  "idris": "idris",
  "ini": null,
  "intelhex": null,
  "isabelle": "isabelle",
  "jai": null,
  "java": "java",
  "javascript": "javascript",
  "jinja2": null,
  "jq": "jq",
  "json": null,
  "jsonnet": "jsonnet",
  "jsx": null,
  "julia": "julia",
  "julius": null,
  "jupyter": null,
  "k": null,
  "kakounescript": "kakounescript",
  "kotlin": "kotlin",
  "ksh": null,
  "kvlanguage": null,
  "lean": "lean",
  "less": null,
  "linkerscript": null,
  "liquid": null,
  "lisp": "common lisp",
  "livescript": "livescript",
  "llvm": "llvm",
  "logtalk": "logtalk",
  "lolcode": "lolcode",
  "lua": "lua",
  "lucius": null,
  "m4": "m4",
  "madlang": null,
  "makefile": "makefile",
  "markdown": null,
  "meson": "meson",
  "metal": "metal",
  "mint": "mint",
  "mlatu": null,
  "moduledef": null,
  "moonscript": "moonscript",
  "msbuild": null,
  "mustache": null,
  "nextflow": "nextflow",
  "nim": "nim",
  "nix": "nix",
  "notquiteperl": null,
  "nugetconfig": null,
  "nushell": "nushell",
  "objectivec": "objective-c",
  "objectivecpp": "objective-c++",
  "ocaml": "ocaml",
  "odin": "odin",
  "openpolicyagent": null,
  "opentype": null,
  "org": null,
  "oz": "oz",
  "pan": "pan",
  "pascal": "pascal",
  "perl": "perl",
  "pest": null,
  "php": "php",
  "poke": null,
  "polly": null,
  "pony": "pony",
  "postcss": null,
  "powershell": "powershell",
  "processing": "processing",
  "prolog": "prolog",
  "protobuf": null,
  "psl": null,
  "pug": null,
  "puppet": "puppet",
  "purescript": "purescript",
  "python": "python",
  "q": "q",
  "qcl": null,
  "qml": "qml",
  "r": "r",
  "racket": "racket",
  "rakefile": null,
  "raku": "raku",
  "razor": null,
  "redscript": null,
  "renpy": "ren'py",
  "rescript": "rescript",
  "restructuredtext": null,
  "ron": null,
  "rpmspecfile": null,
  "ruby": "ruby",
  "rubyhtml": null,
  "rust": "rust",
  "sass": null,
  "scala": "scala",
  "scheme": "scheme",
  "scons": null,
  "sh": "shell",
  "shaderlab": "shaderlab",
  "smalltalk": "smalltalk",
  "sml": "standard ml",
  "solidity": "solidity",
  "specmane": null,
  "spice": null,
  "sqf": "sqf",
  "sql": null,
  "srecode": null,
  "stan": "stan",
  "stratego": null,
  "stylus": null,
  "svelte": null,
  "svg": null,
  "swift": "swift",
  "swig": "swig",
  "systemverilog": "systemverilog",
  "tcl": "tcl",
  "tera": null,
  "tex": null,
  "text": null,
  "thrift": "thrift",
  "toml": null,
  "tsx": "tsx",
  "ttcn": null,
  "twig": null,
  "typescript": "typescript",
  "umpl": null,
  "unison": null,
  "unrealdevelopermarkdown": null,
  "unrealplugin": null,
  "unrealproject": null,
  "unrealscript": "unrealscript",
  "unrealshader": null,
  "unrealshaderheader": null,
  "urweb": "urweb",
  "urwebproject": null,
  "vala": "vala",
  "vb6": "visual basic 6.0",
  "vbscript": "vbscript",
  "velocity": null,
  "verilog": "verilog",
  "verilogargsfile": null,
  "vhdl": "vhdl",
  "vimscript": null,
  "visualbasic": "visual basic .net",
  "visualstudioproject": null,
  "visualstudiosolution": null,
  "vue": null,
  "webassembly": "webassembly",
  "wenyan": null,
  "wgsl": "wgsl",
  "wolfram": "mathematica",
  "xaml": null,
  "xcodeconfig": null,
  "xml": null,
  "xsl": "xslt",
  "xtend": "xtend",
  "yaml": null,
  "zencode": null,
  "zig": "zig",
  "zsh": "shell"
}
